input_src/bft_src/tb/pi_arbiter.vcd
$date
	Mon Mar 12 01:05:52 2018
$end
$version
	Icarus Verilog
$end
$timescale
	1ps
$end
$scope module test $end
$scope module pi_arbiter_test $end
$var wire 1 ! clk $end
$var wire 2 " d_l [1:0] $end
$var wire 2 # d_r [1:0] $end
$var wire 2 $ d_ul [1:0] $end
$var wire 2 % d_ur [1:0] $end
$var wire 1 & random $end
$var wire 1 ' reset $end
$var wire 2 ( sel_ul [1:0] $end
$var wire 2 ) sel_ur [1:0] $end
$var reg 2 * d_l_0 [1:0] $end
$var reg 2 + d_l_1 [1:0] $end
$var reg 2 , d_l_2 [1:0] $end
$var reg 2 - d_l_3 [1:0] $end
$var reg 2 . d_r_0 [1:0] $end
$var reg 2 / d_r_1 [1:0] $end
$var reg 2 0 d_r_2 [1:0] $end
$var reg 2 1 d_r_3 [1:0] $end
$var reg 2 2 d_ul_0 [1:0] $end
$var reg 2 3 d_ul_1 [1:0] $end
$var reg 2 4 d_ul_2 [1:0] $end
$var reg 2 5 d_ul_3 [1:0] $end
$var reg 2 6 d_ur_0 [1:0] $end
$var reg 2 7 d_ur_1 [1:0] $end
$var reg 2 8 d_ur_2 [1:0] $end
$var reg 2 9 d_ur_3 [1:0] $end
$var reg 4 : is_void_0 [3:0] $end
$var reg 4 ; is_void_0_comb [3:0] $end
$var reg 4 < is_void_1 [3:0] $end
$var reg 4 = is_void_1_comb [3:0] $end
$var reg 4 > is_void_2 [3:0] $end
$var reg 4 ? is_void_2_comb [3:0] $end
$var reg 4 @ is_void_3 [3:0] $end
$var reg 4 A is_void_3_comb [3:0] $end
$var reg 4 B is_void_4_comb [3:0] $end
$var reg 1 C rand_gen $end
$var reg 1 D rand_gen_4_comb $end
$var reg 2 E sel_l [1:0] $end
$var reg 2 F sel_l_0 [1:0] $end
$var reg 2 G sel_l_0_comb [1:0] $end
$var reg 2 H sel_l_1 [1:0] $end
$var reg 2 I sel_l_1_comb [1:0] $end
$var reg 2 J sel_l_2 [1:0] $end
$var reg 2 K sel_l_2_comb [1:0] $end
$var reg 2 L sel_l_3 [1:0] $end
$var reg 2 M sel_l_3_comb [1:0] $end
$var reg 2 N sel_l_4_comb [1:0] $end
$var reg 2 O sel_r [1:0] $end
$var reg 2 P sel_r_0 [1:0] $end
$var reg 2 Q sel_r_0_comb [1:0] $end
$var reg 2 R sel_r_1 [1:0] $end
$var reg 2 S sel_r_1_comb [1:0] $end
$var reg 2 T sel_r_2 [1:0] $end
$var reg 2 U sel_r_2_comb [1:0] $end
$var reg 2 V sel_r_3 [1:0] $end
$var reg 2 W sel_r_3_comb [1:0] $end
$var reg 2 X sel_r_4_comb [1:0] $end
$var reg 2 Y sel_u1 [1:0] $end
$var reg 2 Z sel_u1_0 [1:0] $end
$var reg 2 [ sel_u1_0_comb [1:0] $end
$var reg 2 \ sel_u1_1 [1:0] $end
$var reg 2 ] sel_u1_1_comb [1:0] $end
$var reg 2 ^ sel_u1_2 [1:0] $end
$var reg 2 _ sel_u1_2_comb [1:0] $end
$var reg 2 ` sel_u1_3 [1:0] $end
$var reg 2 a sel_u1_3_comb [1:0] $end
$var reg 2 b sel_u1_4_comb [1:0] $end
$var reg 2 c sel_u2 [1:0] $end
$var reg 2 d sel_u2_0 [1:0] $end
$var reg 2 e sel_u2_0_comb [1:0] $end
$var reg 2 f sel_u2_1 [1:0] $end
$var reg 2 g sel_u2_1_comb [1:0] $end
$var reg 2 h sel_u2_2 [1:0] $end
$var reg 2 i sel_u2_2_comb [1:0] $end
$var reg 2 j sel_u2_3 [1:0] $end
$var reg 2 k sel_u2_3_comb [1:0] $end
$var reg 2 l sel_u2_4_comb [1:0] $end
$upscope $end
$upscope $end
$enddefinitions $end
#0
$dumpvars
bx l
bx k
bx j
bx i
bx h
bx g
bx f
b1 e
bx d
bx c
bx b
bx a
bx `
bx _
bx ^
bx ]
bx \
b1 [
bx Z
bx Y
bx X
bx W
bx V
bx U
bx T
bx S
bx R
b1 Q
bx P
bx O
bx N
bx M
bx L
bx K
bx J
bx I
bx H
b1 G
bx F
bx E
xD
xC
bx B
bx A
bx @
bx ?
bx >
bx =
bx <
b1111 ;
bx :
bx 9
bx 8
bx 7
bx 6
bx 5
bx 4
bx 3
bx 2
bx 1
bx 0
bx /
bx .
bx -
bx ,
bx +
bx *
bx )
bx (
1'
1&
b0 %
b0 $
b0 #
b0 "
0!
$end
#10000
b1 I
b1 S
b1 ]
b1 g
b1111 =
b1 K
b1 U
b1 _
b1 i
b1111 ?
b1 M
b1 W
b1 a
b1 k
b1111 A
0D
b1 N
b1 X
b1 b
b1 l
b0 B
b0 *
b0 .
b0 2
b1 F
b1 P
b1 Z
b1 d
b1111 :
b0 +
b0 /
b0 3
b1 H
b1 R
b1 \
b1 f
b1111 <
b0 ,
b0 0
b0 4
b1 J
b1 T
b1 ^
b1 h
b1111 >
b0 -
b0 1
b0 5
b1 L
b1 V
b1 `
b1 j
b1111 @
0C
b1 E
b1 O
b1 (
b1 Y
b1 )
b1 c
1!
#20000
0!
#30000
1!
#40000
0!
#50000
1!
#60000
0!
#70000
1!
#80000
0!
#90000
1!
#100000
0!
#107000
0'
#110000
b0 6
1!
#120000
0!
#130000
b0 7
1!
#140000
0!
#150000
b0 8
1!
#160000
0!
#170000
b0 B
b0 9
1!
#180000
0!
#190000
1!
#200000
0!
#210000
1!
#220000
0!
#227000
b1 $
#230000
b11 I
b111 =
b1 2
1!
#240000
0!
#247000
b10 $
#250000
b11 S
b1 I
b1011 =
b11 K
b111 ?
b10 2
b1 3
b11 H
b111 <
1!
#260000
0!
#267000
b11 [
b1101 ;
b11 $
#270000
b11 M
b111 A
b1 K
b11 U
b1011 ?
b1 S
b11 ]
b1101 =
b1 4
b11 J
b111 >
b10 3
b1 H
b11 R
b1011 <
b11 2
b11 Z
b1101 :
1!
#280000
0!
#287000
b1 [
b1111 ;
b1 %
b0 $
#290000
b0 I
b1 ]
b111 =
b1 U
b11 _
b1101 ?
b1 M
b11 W
b1011 A
b11 N
b0 B
b0 2
b1 6
b1 Z
b1111 :
b11 3
b1 R
b11 \
b1101 <
b10 4
b1 J
b11 T
b1011 >
b1 5
b11 L
b111 @
1!
#300000
0!
#307000
b1 $
#310000
b1 N
b11 X
b0 B
b1 W
b11 a
b1101 A
b0 K
b1 _
b111 ?
b0 ]
b11 I
b101 =
b11 E
b10 5
b1 L
b11 V
b1011 @
b11 4
b1 T
b11 ^
b1101 >
b0 3
b1 7
b0 H
b1 \
b111 <
b1 2
1!
#320000
0!
#327000
b10 $
#330000
b11 S
b0 I
b1 ]
b11 =
b11 K
b0 _
b101 ?
b0 M
b1 a
b111 A
1D
b1 X
b11 b
b0 B
b10 2
b1 3
b11 H
b0 \
b101 <
b0 4
b1 8
b0 J
b1 ^
b111 >
b11 5
b1 V
b11 `
b1101 @
b1 E
b11 O
1!
#340000
0!
#347000
b11 [
b1101 ;
b11 $
#350000
0D
b0 N
b1 b
b0 B
b11 M
b0 a
b101 A
b0 K
b11 U
b1 _
b11 ?
b0 I
b1 S
b11 ]
b101 =
b1 O
b11 (
b11 Y
1C
b0 5
b1 9
b0 L
b1 `
b111 @
b1 4
b11 J
b0 ^
b101 >
b10 3
b0 H
b11 R
b1 \
b11 <
b11 2
b11 Z
b1101 :
1!
#360000
0!
#367000
b1 [
b1111 ;
b10 %
b0 $
#370000
b0 S
b1 I
b1 ]
b1011 =
b1 U
b11 _
b101 ?
b0 M
b11 W
b1 a
b11 A
1D
b11 N
b0 b
b0 B
b0 2
b10 6
b1 Z
b1111 :
b11 3
b1 R
b11 \
b101 <
b10 4
b0 J
b11 T
b1 ^
b11 >
b1 5
b11 L
b0 `
b101 @
b0 E
b1 (
b1 Y
0C
1!
#380000
0!
#387000
b1 $
#390000
0D
b0 N
b11 X
b1 b
b0 B
b1 W
b11 a
b101 A
b1 K
b0 U
b1 _
b1011 ?
b11 I
b0 S
b11 =
b11 E
b0 (
b0 Y
1C
b10 5
b0 L
b11 V
b1 `
b11 @
b11 4
b1 T
b11 ^
b101 >
b0 3
b10 7
b1 H
b0 R
b1 \
b1011 <
b1 2
1!
#400000
0!
#407000
b10 $
#410000
b0 ]
b1 I
b11 S
b1001 =
b11 K
b11 ?
b1 M
b0 W
b1 a
b1011 A
1D
b1 X
b11 b
b0 B
b10 2
b1 3
b11 H
b11 <
b0 4
b10 8
b1 J
b0 T
b1 ^
b1011 >
b11 5
b1 V
b11 `
b101 @
b0 E
b11 O
b1 (
b1 Y
0C
1!
#420000
0!
#427000
b11 [
b1101 ;
b11 $
#430000
0D
b1 N
b0 X
b1 b
b0 B
b11 M
b11 A
b1 K
b11 U
b0 _
b1001 ?
b0 S
b11 ]
b1001 =
b1 O
b11 (
b11 Y
1C
b0 5
b10 9
b1 L
b0 V
b1 `
b1011 @
b1 4
b11 J
b11 >
b10 3
b1 H
b11 R
b0 \
b1001 <
b11 2
b11 Z
b1101 :
1!
#440000
0!
#447000
b0 e
b1 [
b1110 ;
b11 %
b0 $
#450000
b1 S
b1 ]
b0 g
b1110 =
b0 U
b11 _
b1 M
b11 W
b0 a
b1001 A
b11 N
b0 B
b0 2
b11 6
b1 Z
b0 d
b1110 :
b11 3
b0 R
b11 \
b10 4
b1 J
b11 T
b0 ^
b1001 >
b1 5
b11 L
b11 @
b1 E
b0 O
b1 (
b1 Y
0C
1!
#460000
0!
#467000
b0 e
b1110 ;
b1 $
#470000
1D
b1 N
b11 X
b0 b
b0 B
b0 W
b11 a
b1 U
b1 _
b0 i
b1110 ?
b11 I
b110 =
b11 E
b10 5
b1 L
b11 V
b0 `
b1001 @
b11 4
b0 T
b11 ^
b0 3
b11 7
b1 R
b1 \
b0 f
b1110 <
b1 2
1!
#480000
0!
#487000
b0 e
b1110 ;
b10 $
#490000
b11 S
b1 I
b1010 =
b11 K
b110 ?
b1 W
b1 a
b0 k
b1110 A
b0 X
b11 b
b0 B
b10 2
b1 3
b11 H
b110 <
b0 4
b11 8
b1 T
b1 ^
b0 h
b1110 >
b11 5
b0 V
b11 `
b1 E
b11 O
b0 (
b0 Y
1C
1!
#500000
0!
#507000
b11 [
b0 e
b1100 ;
b11 $
#510000
b1 X
b1 b
b0 l
b0 B
b11 M
b110 A
b1 K
b11 U
b1010 ?
b1 S
b11 ]
b1100 =
b0 O
b11 (
b11 Y
b0 5
b11 9
b1 V
b1 `
b0 j
b1110 @
b1 4
b11 J
b110 >
b10 3
b1 H
b11 R
b1010 <
b11 2
b11 Z
b1100 :
1!
#520000
0!
#527000
b1 [
b1 e
b1111 ;
b1 #
b0 %
b0 $
#530000
b1 ]
b1 g
b1111 =
b1 U
b11 _
b1100 ?
b1 M
b11 W
b1010 A
b11 N
b0 B
b1 .
b0 2
b0 6
b1 Z
b1 d
b1111 :
b11 3
b1 R
b11 \
b1100 <
b10 4
b1 J
b11 T
b1010 >
b1 5
b11 L
b110 @
b1 O
b1 (
b1 Y
b0 )
b0 c
1!
#540000
0!
#547000
b1 $
#550000
b1 N
b11 X
b0 B
b1 W
b11 a
b1100 A
b10 K
b1 _
b1 i
b111 ?
b11 I
b111 =
b11 E
b10 5
b1 L
b11 V
b1010 @
b11 4
b1 T
b11 ^
b1100 >
b1 /
b0 3
b0 7
b1 \
b1 f
b1111 <
b1 2
1!
#560000
0!
#567000
b10 $
#570000
b11 S
b1 I
b1011 =
b10 U
b11 ?
b11 K
b10 M
b1 a
b1 k
b111 A
b1 X
b11 b
b0 B
b10 2
b1 3
b11 H
b111 <
b1 0
b0 4
b0 8
b10 J
b1 ^
b1 h
b111 >
b11 5
b1 V
b11 `
b1100 @
b1 E
b11 O
1!
#580000
0!
#587000
b11 [
b1101 ;
b11 $
#590000
0D
b10 N
b1 b
b1 l
b0 B
b11 M
b10 W
b11 A
b10 K
b11 U
b11 ?
b1 S
b11 ]
b1101 =
b1 O
b11 (
b11 Y
b1 1
b0 5
b0 9
b10 L
b1 `
b1 j
b111 @
b1 4
b11 J
b10 T
b11 >
b10 3
b1 H
b11 R
b1011 <
b11 2
b11 Z
b1101 :
1!
#600000
0!
#607000
b1 [
b1111 ;
b1 %
b0 $
#610000
b0 I
b1 ]
b111 =
b10 K
b1 U
b11 _
b101 ?
b10 M
b11 W
b11 N
b10 X
b0 B
b0 2
b1 6
b1 Z
b1111 :
b11 3
b1 R
b11 \
b1101 <
b10 4
b10 J
b11 T
b1 5
b11 L
b10 V
b11 @
b10 E
b1 (
b1 Y
b1 )
b1 c
0C
1!
#620000
0!
#627000
b1 $
#630000
b10 N
b11 X
b0 B
b1 W
b11 a
b101 A
b10 U
b0 K
b1 _
b11 ?
b0 ]
b11 I
b101 =
b11 E
b10 O
b10 5
b10 L
b11 V
b11 4
b1 T
b11 ^
b101 >
b0 3
b1 7
b0 H
b1 \
b111 <
b1 2
1!
#640000
0!
#647000
b10 $
#650000
b11 S
b0 I
b1 ]
b11 =
b11 K
b10 U
b0 _
b1 ?
b0 M
b10 W
b1 a
b11 A
1D
b1 X
b11 b
b0 B
b10 2
b1 3
b11 H
b0 \
b101 <
b0 4
b1 8
b0 J
b10 T
b1 ^
b11 >
b11 5
b1 V
b11 `
b101 @
b10 E
b11 O
1!
#660000
0!
#667000
b11 [
b1101 ;
b11 $
#670000
0D
b0 N
b10 X
b1 b
b0 B
b11 M
b0 a
b1 A
b0 K
b11 U
b10 _
b1 ?
b0 I
b1 S
b11 ]
b101 =
b1 O
b11 (
b11 Y
1C
b0 5
b1 9
b0 L
b10 V
b1 `
b11 @
b1 4
b11 J
b0 ^
b1 >
b10 3
b0 H
b11 R
b1 \
b11 <
b11 2
b11 Z
b1101 :
1!
#680000
0!
#687000
b1 [
b1111 ;
b10 %
b0 $
#690000
b0 S
b1 I
b1 ]
b1011 =
b10 U
b11 _
b1 ?
b0 M
b11 W
b10 a
1D
b11 N
b0 b
b0 B
b0 2
b10 6
b1 Z
b1111 :
b11 3
b1 R
b11 \
b101 <
b10 4
b0 J
b11 T
b10 ^
b1 5
b11 L
b0 `
b1 @
b0 E
b10 O
b1 (
b1 Y
0C
1!
#700000
0!
#707000
b1 $
#710000
b0 N
b11 X
b10 b
b0 B
b10 W
b11 a
b10 K
b0 U
b1 _
b11 ?
b11 I
b0 S
b11 =
b11 E
b0 (
b0 Y
1C
b10 5
b0 L
b11 V
b10 `
b11 4
b10 T
b11 ^
b0 3
b10 7
b1 H
b0 R
b1 \
b1011 <
b1 2
1!
#720000
0!
#727000
b10 $
#730000
b0 ]
b1 I
b11 S
b1001 =
b10 _
b1 ?
b11 K
b10 M
b0 W
b1 a
b11 A
b10 X
b11 b
b0 B
b10 2
b1 3
b11 H
b11 <
b0 4
b10 8
b10 J
b0 T
b1 ^
b11 >
b11 5
b10 V
b11 `
b0 E
b11 O
b10 (
b10 Y
1!
#740000
0!
#747000
b11 [
b1101 ;
b11 $
#750000
0D
b10 N
b0 X
b1 b
b0 B
b11 M
b10 a
b1 A
b10 K
b11 U
b0 _
b1 ?
b0 S
b11 ]
b1001 =
b10 O
b11 (
b11 Y
b0 5
b10 9
b10 L
b0 V
b1 `
b11 @
b1 4
b11 J
b10 ^
b1 >
b10 3
b1 H
b11 R
b0 \
b1001 <
b11 2
b11 Z
b1101 :
1!
#760000
0!
#767000
b0 e
b1 [
b1110 ;
b11 %
b0 $
#770000
b1 S
b1 ]
b0 g
b1110 =
b10 K
b0 U
b11 _
b1 ?
b10 M
b11 W
b0 a
1D
b11 N
b10 b
b0 B
b0 2
b11 6
b1 Z
b0 d
b1110 :
b11 3
b0 R
b11 \
b10 4
b10 J
b11 T
b0 ^
b1 5
b11 L
b10 `
b1 @
b10 E
b0 O
b1 (
b1 Y
0C
1!
#780000
0!
#787000
b0 e
b1110 ;
b1 $
#790000
b10 N
b11 X
b0 b
b0 B
b0 W
b11 a
b10 K
b1 U
b1 _
b0 i
b110 ?
b11 I
b110 =
b11 E
b10 (
b10 Y
1C
b10 5
b10 L
b11 V
b0 `
b11 4
b0 T
b11 ^
b0 3
b11 7
b1 R
b1 \
b0 f
b1110 <
b1 2
1!
#800000
0!
#807000
b0 e
b1110 ;
b10 $
#810000
b11 S
b1 I
b1010 =
b10 U
b10 ?
b11 K
b1 W
b1 a
b0 k
b110 A
b0 X
b11 b
b0 B
b10 2
b1 3
b11 H
b110 <
b0 4
b11 8
b1 T
b1 ^
b0 h
b110 >
b11 5
b0 V
b11 `
b10 E
b11 O
b0 (
b0 Y
1!
#820000
0!
#827000
b11 [
b0 e
b1100 ;
b11 $
#830000
b1 X
b1 b
b0 l
b0 B
b11 M
b10 W
b10 A
b10 K
b11 U
b10 ?
b1 S
b11 ]
b1100 =
b0 O
b11 (
b11 Y
b0 5
b11 9
b1 V
b1 `
b0 j
b110 @
b1 4
b11 J
b10 T
b10 >
b10 3
b1 H
b11 R
b1010 <
b11 2
b11 Z
b1100 :
1!
#840000
0!
#847000
b10 Q
b1 [
b1 e
b1011 ;
b10 #
b0 %
b0 $
#850000
b10 S
b1 ]
b1 g
b1011 =
b10 K
b1 U
b11 _
b100 ?
b10 M
b11 W
b11 N
b10 X
b0 B
b10 .
b0 2
b0 6
b10 P
b1 Z
b1 d
b1011 :
b11 3
b1 R
b11 \
b1100 <
b10 4
b10 J
b11 T
b1 5
b11 L
b10 V
b10 @
b1 O
b1 (
b1 Y
b0 )
b0 c
1!
#860000
0!
#867000
b10 Q
b1011 ;
b1 $
#870000
b10 N
b11 X
b0 B
b1 W
b11 a
b100 A
b1 K
b10 U
b1 _
b1 i
b1011 ?
b11 I
b11 =
b11 E
b10 O
b10 5
b10 L
b11 V
b11 4
b1 T
b11 ^
b100 >
b10 /
b0 3
b0 7
b10 R
b1 \
b1 f
b1011 <
b1 2
1!
#880000
0!
#887000
b10 Q
b1011 ;
b10 $
#890000
b11 ]
b1 I
b1001 =
b11 K
b11 ?
b1 M
b10 W
b1 a
b1 k
b1011 A
b1 X
b11 b
b0 B
b10 2
b1 3
b11 H
b11 <
b10 0
b0 4
b0 8
b1 J
b10 T
b1 ^
b1 h
b1011 >
b11 5
b1 V
b11 `
b100 @
b10 E
b11 O
1!
#900000
0!
#907000
b11 [
b10 Q
b1001 ;
b11 $
#910000
0D
b1 N
b10 X
b1 b
b1 l
b0 B
b11 M
b11 A
b1 K
b11 _
b1001 ?
b1 O
b11 (
b11 Y
b10 1
b0 5
b0 9
b1 L
b10 V
b1 `
b1 j
b1011 @
b1 4
b11 J
b11 >
b10 3
b1 H
b11 \
b1001 <
b11 2
b11 Z
b1001 :
1!
#920000
0!
#927000
b10 Q
b1 [
b1011 ;
b1 %
b0 $
#930000
b0 I
b1 ]
b11 =
b1 M
b11 a
b1001 A
b11 N
b0 B
b0 2
b1 6
b1 Z
b1011 :
b11 3
b10 4
b1 J
b11 ^
b1001 >
b1 5
b11 L
b11 @
b1 E
b10 O
b1 (
b1 Y
b1 )
b1 c
0C
1!
#940000
0!
#947000
b10 Q
b1011 ;
b1 $
#950000
1D
b1 N
b11 b
b0 B
b0 K
b1 _
b11 ?
b0 ]
b11 I
b1 =
b11 E
b10 5
b1 L
b11 `
b1001 @
b11 4
b0 3
b1 7
b0 H
b1 \
b11 <
b1 2
1!
#960000
0!
#967000
b10 Q
b1011 ;
b10 $
#970000
b0 I
b11 ]
b1 =
b11 K
b0 _
b1 ?
b0 M
b1 a
b11 A
b0 B
b10 2
b1 3
b11 H
b0 \
b1 <
b0 4
b1 8
b0 J
b1 ^
b11 >
b11 5
b1 E
b11 (
b11 Y
1C
1!
#980000
0!
#987000
b11 [
b10 Q
b1001 ;
b11 $
#990000
0D
b0 N
b1 b
b0 B
b11 M
b0 a
b1 A
b0 K
b11 _
b0 I
b1 =
b0 5
b1 9
b0 L
b1 `
b11 @
b1 4
b11 J
b0 ^
b1 >
b10 3
b0 H
b11 \
b11 2
b11 Z
b1001 :
1!
#1000000
0!
#1007000
b10 Q
b1 [
b1011 ;
b10 %
b0 $
#1010000
b0 g
b1 I
b1 ]
b1010 =
b0 M
b11 a
1D
b11 N
b0 b
b0 B
b0 2
b10 6
b1 Z
b1011 :
b11 3
b10 4
b0 J
b11 ^
b1 5
b11 L
b0 `
b1 @
b0 E
b1 (
b1 Y
0C
1!
#1020000
0!
#1027000
b10 Q
b1011 ;
b1 $
#1030000
b0 N
b11 b
b0 B
b1 K
b1 _
b0 i
b1010 ?
b11 I
b0 g
b10 =
b11 E
b0 (
b0 Y
1C
b10 5
b0 L
b11 `
b11 4
b0 3
b10 7
b1 H
b1 \
b0 f
b1010 <
b1 2
1!
#1040000
0!
#1047000
b10 Q
b1011 ;
b10 $
#1050000
b11 ]
b1 I
b0 g
b1000 =
b11 K
b10 ?
b1 M
b1 a
b0 k
b1010 A
b0 B
b10 2
b1 3
b11 H
b10 <
b0 4
b10 8
b1 J
b1 ^
b0 h
b1010 >
b11 5
b0 E
b11 (
b11 Y
1!
#1060000
0!
#1067000
b11 [
b10 Q
b1001 ;
b11 $
#1070000
b1 N
b1 b
b0 l
b0 B
b11 M
b10 A
b1 K
b11 _
b1000 ?
b0 g
b1000 =
b0 5
b10 9
b1 L
b1 `
b0 j
b1010 @
b1 4
b11 J
b10 >
b10 3
b1 H
b11 \
b1000 <
b11 2
b11 Z
b1001 :
1!
#1080000
0!
#1087000
b0 e
b10 Q
b1 [
b1010 ;
b11 %
b0 $
#1090000
b1 ]
b1010 =
b1 M
b11 a
b1000 A
b11 N
b0 B
b0 2
b11 6
b1 Z
b0 d
b1010 :
b11 3
b10 4
b1 J
b11 ^
b1000 >
b1 5
b11 L
b10 @
b1 E
b1 (
b1 Y
b0 )
b0 c
1!
#1100000
0!
#1107000
b10 Q
b0 e
b1010 ;
b1 $
#1110000
b1 N
b11 b
b0 B
b1 _
b1010 ?
b11 I
b10 =
b11 E
b10 5
b1 L
b11 `
b1000 @
b11 4
b0 3
b11 7
b1 \
b1010 <
b1 2
1!
#1120000
0!
#1127000
b10 Q
b0 e
b1010 ;
b10 $
#1130000
b11 ]
b1 I
b1000 =
b11 K
b10 ?
b1 a
b1010 A
b0 B
b10 2
b1 3
b11 H
b10 <
b0 4
b11 8
b1 ^
b1010 >
b11 5
b1 E
b11 (
b11 Y
1!
#1140000
0!
#1147000
b11 [
b10 Q
b0 e
b1000 ;
b11 $
#1150000
b1 b
b0 B
b11 M
b10 A
b1 K
b11 _
b1000 ?
b0 5
b11 9
b1 `
b1010 @
b1 4
b11 J
b10 >
b10 3
b1 H
b11 \
b1000 <
b11 2
b11 Z
b1000 :
1!
#1160000
0!
#1167000
b1 Q
b1 [
b1 e
b1111 ;
b11 #
b0 %
b0 $
#1170000
b1 S
b1 ]
b1 g
b1111 =
b1 M
b11 a
b1000 A
b11 N
b0 B
b11 .
b0 2
b0 6
b1 P
b1 Z
b1 d
b1111 :
b11 3
b10 4
b1 J
b11 ^
b1000 >
b1 5
b11 L
b10 @
b1 (
b1 Y
1!
#1180000
0!
#1187000
b1 $
#1190000
b1 N
b11 b
b0 B
b1 U
b1 _
b1 i
b1111 ?
b11 I
b111 =
b11 E
b10 5
b1 L
b11 `
b1000 @
b11 4
b11 /
b0 3
b0 7
b1 R
b1 \
b1 f
b1111 <
b1 2
1!
#1200000
0!
#1207000
b10 $
#1210000
b11 S
b1 I
b1011 =
b11 K
b111 ?
b1 W
b10 a
b1 k
b1101 A
b0 B
b10 2
b1 3
b11 H
b111 <
b11 0
b0 4
b0 8
b1 T
b1 ^
b1 h
b1111 >
b11 5
b1 E
b11 (
b11 Y
1!
#1220000
0!
#1227000
b11 [
b1101 ;
b11 $
#1230000
b1 X
b10 b
b1 l
b0 B
b11 M
b10 a
b101 A
b1 K
b11 U
b1011 ?
b1 S
b11 ]
b1101 =
b11 1
b0 5
b0 9
b1 V
b10 `
b1 j
b1101 @
b1 4
b11 J
b111 >
b10 3
b1 H
b11 R
b1011 <
b11 2
b11 Z
b1101 :
1!
#1240000
0!
#1247000
b1 [
b1111 ;
b1 %
b0 $
#1250000
b0 I
b1 ]
b111 =
b1 U
b11 _
b1101 ?
b1 M
b11 W
b10 a
b1001 A
b11 N
b0 B
b0 2
b1 6
b1 Z
b1111 :
b11 3
b1 R
b11 \
b1101 <
b10 4
b1 J
b11 T
b1011 >
b1 5
b11 L
b101 @
b1 O
b10 (
b10 Y
b1 )
b1 c
1!
#1260000
0!
#1267000
b1 $
#1270000
b1 N
b11 X
b0 B
b10 k
b1 W
b11 a
b1100 A
b0 K
b1 _
b111 ?
b0 ]
b11 I
b101 =
b11 E
b10 5
b1 L
b11 V
b1001 @
b11 4
b1 T
b11 ^
b1101 >
b0 3
b1 7
b0 H
b1 \
b111 <
b1 2
1!
#1280000
0!
#1287000
b10 $
#1290000
b11 S
b0 I
b1 ]
b11 =
b11 K
b0 _
b101 ?
b0 M
b10 a
b1 k
b101 A
b1 X
b11 b
b10 l
b0 B
b10 2
b1 3
b11 H
b0 \
b101 <
b0 4
b1 8
b0 J
b1 ^
b111 >
b11 5
b1 V
b11 `
b10 j
b1100 @
b1 E
b11 O
1!
#1300000
0!
#1307000
b11 [
b1101 ;
b11 $
#1310000
b0 N
b10 b
b1 l
b0 B
b10 k
b100 A
b11 M
b0 a
b0 K
b11 U
b1 _
b11 ?
b0 I
b1 S
b11 ]
b101 =
b1 O
b11 (
b11 Y
b10 )
b10 c
b0 5
b1 9
b0 L
b10 `
b1 j
b101 @
b1 4
b11 J
b0 ^
b101 >
b10 3
b0 H
b11 R
b1 \
b11 <
b11 2
b11 Z
b1101 :
1!
#1320000
0!
#1327000
b1 [
b1111 ;
b10 %
b0 $
#1330000
b0 S
b1 I
b1 ]
b1011 =
b1 U
b11 _
b101 ?
b0 M
b11 W
b10 a
b1 k
b1 A
b11 N
b0 b
b10 l
b0 B
b0 2
b10 6
b1 Z
b1111 :
b11 3
b1 R
b11 \
b101 <
b10 4
b0 J
b11 T
b1 ^
b11 >
b1 5
b11 L
b0 `
b10 j
b100 @
b0 E
b10 (
b10 Y
b1 )
b1 c
1!
#1340000
0!
#1347000
b1 $
#1350000
b0 N
b11 X
b10 b
b1 l
b0 B
b10 k
b1 W
b11 a
b100 A
b1 K
b0 U
b1 _
b1011 ?
b11 I
b0 S
b11 =
b11 E
b0 (
b0 Y
b10 )
b10 c
b10 5
b0 L
b11 V
b10 `
b1 j
b1 @
b11 4
b1 T
b11 ^
b101 >
b0 3
b10 7
b1 H
b0 R
b1 \
b1011 <
b1 2
1!
#1360000
0!
#1367000
b10 $
#1370000
b0 ]
b1 I
b11 S
b1001 =
b11 K
b11 ?
b1 M
b0 W
b10 a
b1 k
b1001 A
b1 X
b11 b
b10 l
b0 B
b10 2
b1 3
b11 H
b11 <
b0 4
b10 8
b1 J
b0 T
b1 ^
b1011 >
b11 5
b1 V
b11 `
b10 j
b100 @
b0 E
b11 O
b10 (
b10 Y
b1 )
b1 c
1!
#1380000
0!
#1387000
b11 [
b1101 ;
b11 $
#1390000
b1 N
b0 X
b10 b
b1 l
b0 B
b11 M
b10 a
b1 A
b1 K
b11 U
b0 _
b1001 ?
b0 S
b11 ]
b1001 =
b1 O
b11 (
b11 Y
b10 )
b10 c
b0 5
b10 9
b1 L
b0 V
b10 `
b1 j
b1001 @
b1 4
b11 J
b11 >
b10 3
b1 H
b11 R
b0 \
b1001 <
b11 2
b11 Z
b1101 :
1!
#1400000
0!
#1407000
b0 e
b1 [
b1110 ;
b11 %
b0 $
#1410000
b1 S
b1 ]
b0 g
b1110 =
b0 U
b11 _
b10 k
b1 M
b11 W
b0 a
b1000 A
b11 N
b0 B
b0 2
b11 6
b1 Z
b0 d
b1110 :
b11 3
b0 R
b11 \
b10 4
b1 J
b11 T
b0 ^
b1001 >
b1 5
b11 L
b1 @
b1 E
b0 O
b10 (
b10 Y
b1 )
b1 c
1!
#1420000
0!
#1427000
b0 e
b1110 ;
b1 $
#1430000
b1 N
b11 X
b0 b
b10 l
b0 B
b0 W
b11 a
b10 k
b1000 A
b1 U
b1 _
b0 i
b1110 ?
b11 I
b110 =
b11 E
b10 5
b1 L
b11 V
b0 `
b10 j
b1000 @
b11 4
b0 T
b11 ^
b0 3
b11 7
b1 R
b1 \
b0 f
b1110 <
b1 2
1!
#1440000
0!
#1447000
b0 e
b1110 ;
b10 $
#1450000
b11 S
b1 I
b1010 =
b11 K
b110 ?
b1 W
b10 a
b0 k
b1100 A
b0 X
b11 b
b0 B
b10 2
b1 3
b11 H
b110 <
b0 4
b11 8
b1 T
b1 ^
b0 h
b1110 >
b11 5
b0 V
b11 `
b1 E
b11 O
b0 (
b0 Y
b10 )
b10 c
1!
#1460000
0!
#1467000
b11 [
b0 e
b1100 ;
b11 $
#1470000
b1 X
b10 b
b0 l
b0 B
b11 M
b10 a
b100 A
b1 K
b11 U
b1010 ?
b1 S
b11 ]
b1100 =
b0 O
b11 (
b11 Y
b0 5
b11 9
b1 V
b10 `
b0 j
b1100 @
b1 4
b11 J
b110 >
b10 3
b1 H
b11 R
b1010 <
b11 2
b11 Z
b1100 :
1!
#1480000
0!
#1487000
b1 [
b1 e
b111 ;
b1 "
b0 #
b0 %
b0 $
#1490000
b1 ]
b1 g
b111 =
b1 U
b11 _
b1100 ?
b1 M
b11 W
b10 a
b1000 A
b11 N
b0 B
b1 *
b0 .
b0 2
b0 6
b1 Z
b1 d
b111 :
b11 3
b1 R
b11 \
b1100 <
b10 4
b1 J
b11 T
b1010 >
b1 5
b11 L
b100 @
b1 O
b10 (
b10 Y
b0 )
b0 c
1!
#1500000
0!
#1507000
b111 ;
b1 $
